[gd_scene load_steps=3 format=3 uid="uid://w1gewy60uku7"]

[ext_resource type="PackedScene" uid="uid://b32740mn55y8c" path="res://obstacles/rock.tscn" id="1"]
[ext_resource type="PackedScene" uid="uid://5g6m151v4im7" path="res://obstacles/plane.tscn" id="2"]

[node name="preset9" type="Node2D"]
z_index = -1

[node name="rock" parent="." instance=ExtResource("1")]
position = Vector2(592, 472)

[node name="rock1" parent="." instance=ExtResource("1")]
position = Vector2(372, 172)
rotation = 3.14159

[node name="plane" parent="." instance=ExtResource("2")]
position = Vector2(172, 312)

[node name="AnimationPlayer" parent="plane/body" index="2"]
autoplay = "playblue2"

[node name="plane1" parent="." instance=ExtResource("2")]
position = Vector2(372, 392)

[node name="plane2" parent="." instance=ExtResource("2")]
position = Vector2(572, 252)

[node name="AnimationPlayer" parent="plane2/body" index="2"]
autoplay = "playblue3"

[editable path="plane"]
[editable path="plane2"]
