[gd_scene load_steps=3 format=3 uid="uid://b8mynk5hbjk42"]

[ext_resource type="PackedScene" uid="uid://b32740mn55y8c" path="res://obstacles/rock.tscn" id="1"]
[ext_resource type="PackedScene" uid="uid://5g6m151v4im7" path="res://obstacles/plane.tscn" id="2"]

[node name="preset10" type="Node2D"]
z_index = -1

[node name="rock" parent="." instance=ExtResource("1")]
position = Vector2(472, 472)

[node name="rock1" parent="." instance=ExtResource("1")]
position = Vector2(492, 172)
rotation = 3.14159

[node name="rock2" parent="." instance=ExtResource("1")]
position = Vector2(132, 252)
rotation = 3.14159

[node name="plane" parent="." instance=ExtResource("2")]
position = Vector2(272, 272)

[node name="plane1" parent="." instance=ExtResource("2")]
position = Vector2(352, 412)

[node name="AnimationPlayer" parent="plane1/body" index="2"]
autoplay = "playblue2"

[node name="plane2" parent="." instance=ExtResource("2")]
position = Vector2(612, 312)

[node name="AnimationPlayer" parent="plane2/body" index="2"]
autoplay = "playblue3"

[editable path="plane1"]
[editable path="plane2"]
