[gd_scene load_steps=2 format=3 uid="uid://cf4th0c8p5kam"]

[ext_resource type="PackedScene" uid="uid://5g6m151v4im7" path="res://obstacles/plane.tscn" id="1"]

[node name="preset6" type="Node2D"]
z_index = -1

[node name="plane" parent="." instance=ExtResource("1")]
position = Vector2(392, 312)

[node name="AnimationPlayer" parent="plane/body" index="2"]
autoplay = "playblue3"

[node name="plane1" parent="." instance=ExtResource("1")]
position = Vector2(232, 232)

[node name="AnimationPlayer" parent="plane1/body" index="2"]
autoplay = "playblue2"

[node name="plane2" parent="." instance=ExtResource("1")]
position = Vector2(592, 312)

[node name="AnimationPlayer" parent="plane2/body" index="2"]
autoplay = "playblue2"

[editable path="plane"]
[editable path="plane1"]
[editable path="plane2"]
