[gd_resource type="Animation" format=3 uid="uid://cubx1dwft2asj"]

[resource]
resource_name = "playblue2"
length = 1.6
loop_mode = 1
tracks/0/type = "value"
tracks/0/imported = false
tracks/0/enabled = true
tracks/0/path = NodePath("Sprite2D:frame")
tracks/0/interp = 1
tracks/0/loop_wrap = true
tracks/0/keys = {
"times": PackedFloat32Array(0, 0.1, 0.2, 0.3, 0.4, 0.5, 0.6, 0.7, 0.8, 0.9, 1, 1.1, 1.2, 1.3, 1.4, 1.5),
"transitions": PackedFloat32Array(1, 1, 1, 1, 1, 1, 1, 1, 1, 1, 1, 1, 1, 1, 1, 1),
"update": 1,
"values": [10, 0, 2, 0, 10, 0, 2, 0, 10, 0, 2, 0, 10, 0, 2, 0]
}
tracks/1/type = "value"
tracks/1/imported = false
tracks/1/enabled = true
tracks/1/path = NodePath(".:position")
tracks/1/interp = 2
tracks/1/loop_wrap = true
tracks/1/keys = {
"times": PackedFloat32Array(0.4, 1.2),
"transitions": PackedFloat32Array(0.25, 0.25),
"update": 0,
"values": [Vector2(0, -10), Vector2(0, 10)]
}
tracks/2/type = "value"
tracks/2/imported = false
tracks/2/enabled = true
tracks/2/path = NodePath("Sprite2D:rotation_degrees")
tracks/2/interp = 1
tracks/2/loop_wrap = true
tracks/2/keys = {
"times": PackedFloat32Array(0.7, 1.5),
"transitions": PackedFloat32Array(-4, -4),
"update": 0,
"values": [-30.0, 30.0]
}
